Quartus project/simulation/qsim/TEST_PROJECT_1.msim.vcd
$comment
	File created using the following command:
		vcd file TEST_PROJECT_1.msim.vcd -direction
$end
$date
	Sun Nov 27 02:54:18 2022
$end
$version
	ModelSim Version 10.1d
$end
$timescale
	1ps
$end
$scope module modulator_vlg_vec_tst $end
$var reg 1 ! clk $end
$var reg 1 " en $end
$var reg 1 # nreset $end
$var wire 1 $ out $end
$var wire 1 % sampler $end
$scope module i1 $end
$var wire 1 & gnd $end
$var wire 1 ' vcc $end
$var wire 1 ( unknown $end
$var tri1 1 ) devclrn $end
$var tri1 1 * devpor $end
$var tri1 1 + devoe $end
$var wire 1 , out~output_o $end
$var wire 1 - clk~input_o $end
$var wire 1 . nreset~input_o $end
$var wire 1 / en~input_o $end
$var wire 1 0 cnt[0]~11_combout $end
$var wire 1 1 cnt[2]~16 $end
$var wire 1 2 cnt[3]~18_combout $end
$var wire 1 3 out~2_combout $end
$var wire 1 4 cnt[3]~19 $end
$var wire 1 5 cnt[4]~20_combout $end
$var wire 1 6 cnt[4]~21 $end
$var wire 1 7 cnt[5]~22_combout $end
$var wire 1 8 cnt[5]~23 $end
$var wire 1 9 cnt[6]~24_combout $end
$var wire 1 : cnt[6]~25 $end
$var wire 1 ; cnt[7]~26_combout $end
$var wire 1 < Equal0~1_combout $end
$var wire 1 = cnt[7]~27 $end
$var wire 1 > cnt[8]~28_combout $end
$var wire 1 ? cnt[8]~29 $end
$var wire 1 @ cnt[9]~30_combout $end
$var wire 1 A cnt[9]~31 $end
$var wire 1 B cnt[10]~32_combout $end
$var wire 1 C Equal0~2_combout $end
$var wire 1 D cnt[1]~17_combout $end
$var wire 1 E cnt[0]~12 $end
$var wire 1 F cnt[1]~13_combout $end
$var wire 1 G cnt[1]~14 $end
$var wire 1 H cnt[2]~15_combout $end
$var wire 1 I Equal0~0_combout $end
$var wire 1 J out~0_combout $end
$var wire 1 K out~1_combout $end
$var wire 1 L out~reg0_q $end
$var wire 1 M cnt [10] $end
$var wire 1 N cnt [9] $end
$var wire 1 O cnt [8] $end
$var wire 1 P cnt [7] $end
$var wire 1 Q cnt [6] $end
$var wire 1 R cnt [5] $end
$var wire 1 S cnt [4] $end
$var wire 1 T cnt [3] $end
$var wire 1 U cnt [2] $end
$var wire 1 V cnt [1] $end
$var wire 1 W cnt [0] $end
$upscope $end
$upscope $end
$enddefinitions $end
#0
$dumpvars
0!
1"
1#
0$
x%
0&
1'
x(
1)
1*
1+
0,
0-
1.
1/
10
01
02
13
14
05
06
07
18
09
0:
0;
0<
1=
0>
0?
0@
1A
0B
0C
0D
0E
0F
1G
0H
1I
1J
0K
0L
0W
0V
0U
0T
0S
0R
0Q
0P
0O
0N
0M
$end
#5000
1!
1-
0%
1W
1E
00
1F
#10000
0!
0-
1%
#15000
1!
1-
0%
1V
0W
0G
0F
0E
10
1H
1G
1F
0H
#20000
0!
0-
1%
#25000
1!
1-
0%
1W
1E
00
0G
0F
1H
#30000
0!
0-
1%
#35000
1!
1-
0%
1U
0V
0W
11
0H
1G
1F
0E
10
12
01
1H
0F
02
#40000
0!
0-
1%
#45000
1!
1-
0%
1W
1E
00
1F
#50000
0!
0-
1%
#55000
1!
1-
0%
1V
0W
0G
0F
0E
10
11
0H
1G
1F
12
01
1H
02
#60000
0!
0-
1%
#65000
1!
1-
0%
1W
1E
00
0G
0F
11
0H
12
#70000
0!
0-
1%
#75000
1!
1-
0%
0U
0V
0W
1T
01
1H
1G
1F
0E
10
04
02
14
12
0H
0F
15
05
#80000
0!
0-
1%
#85000
1!
1-
0%
1W
1E
00
1F
#90000
0!
0-
1%
#95000
1!
1-
0%
1V
0W
0G
0F
0E
10
1H
1G
1F
0H
#100000
0!
0-
1%
#105000
1!
1-
0%
1W
0I
1E
00
0J
1D
0G
0F
1K
1H
#110000
0!
0-
1%
#115000
1!
1-
0%
0V
0W
0T
1L
1I
1G
1F
0E
10
02
1J
1,
1$
0J
0D
0H
0F
0K
1K
#120000
0!
0-
1%
#125000
1!
1-
0%
1W
1E
00
1F
#130000
0!
0-
1%
#135000
1!
1-
0%
1V
0W
0G
0F
0E
10
1H
1G
1F
0H
#140000
0!
0-
1%
#145000
1!
1-
0%
1W
1E
00
0G
0F
1H
#150000
0!
0-
1%
#155000
1!
1-
0%
1U
0V
0W
11
0H
1G
1F
0E
10
12
01
1H
0F
02
#160000
0!
0-
1%
#165000
1!
1-
0%
1W
1E
00
1F
#170000
0!
0-
1%
#175000
1!
1-
0%
1V
0W
0G
0F
0E
10
11
0H
1G
1F
12
01
1H
02
#180000
0!
0-
1%
#185000
1!
1-
0%
1W
1E
00
0G
0F
11
0H
12
#190000
0!
0-
1%
#195000
1!
1-
0%
0U
0V
0W
1T
01
1H
1G
1F
0E
10
04
02
14
12
0H
0F
15
05
#200000
0!
0-
1%
#205000
1!
1-
0%
1W
1E
00
1F
#210000
0!
0-
1%
#215000
1!
1-
0%
1V
0W
0G
0F
0E
10
1H
1G
1F
0H
#220000
0!
0-
1%
#225000
1!
1-
0%
1W
0I
1E
00
1J
1D
0G
0F
0K
1H
#230000
0!
0-
1%
#235000
1!
1-
0%
0V
0W
0T
0L
1I
1G
1F
0E
10
02
0J
0,
0$
1J
0D
0H
0F
1K
0K
#240000
0!
0-
1%
#245000
1!
1-
0%
1W
1E
00
1F
#250000
0!
0-
1%
#255000
1!
1-
0%
1V
0W
0G
0F
0E
10
1H
1G
1F
0H
#260000
0!
0-
1%
#265000
1!
1-
0%
1W
1E
00
0G
0F
1H
#270000
0!
0-
1%
#275000
1!
1-
0%
1U
0V
0W
11
0H
1G
1F
0E
10
12
01
1H
0F
02
#280000
0!
0-
1%
#285000
1!
1-
0%
1W
1E
00
1F
#290000
0!
0-
1%
#295000
1!
1-
0%
1V
0W
0G
0F
0E
10
11
0H
1G
1F
12
01
1H
02
#300000
0!
0-
1%
#305000
1!
1-
0%
1W
1E
00
0G
0F
11
0H
12
#310000
0!
0-
1%
#315000
1!
1-
0%
0U
0V
0W
1T
01
1H
1G
1F
0E
10
04
02
14
12
0H
0F
15
05
#320000
0!
0-
1%
#325000
1!
1-
0%
1W
1E
00
1F
#330000
0!
0-
1%
#335000
1!
1-
0%
1V
0W
0G
0F
0E
10
1H
1G
1F
0H
#340000
0!
0-
1%
#345000
1!
1-
0%
1W
0I
1E
00
0J
1D
0G
0F
1K
1H
#350000
0!
0-
1%
#355000
1!
1-
0%
0V
0W
0T
1L
1I
1G
1F
0E
10
02
1J
1,
1$
0J
0D
0H
0F
0K
1K
#360000
0!
0-
1%
#365000
1!
1-
0%
1W
1E
00
1F
#370000
0!
0-
1%
#375000
1!
1-
0%
1V
0W
0G
0F
0E
10
1H
1G
1F
0H
#380000
0!
0-
1%
#385000
1!
1-
0%
1W
1E
00
0G
0F
1H
#390000
0!
0-
1%
#395000
1!
1-
0%
1U
0V
0W
11
0H
1G
1F
0E
10
12
01
1H
0F
02
#400000
0!
0-
1%
#405000
1!
1-
0%
1W
1E
00
1F
#410000
0!
0-
1%
#415000
1!
1-
0%
1V
0W
0G
0F
0E
10
11
0H
1G
1F
12
01
1H
02
#420000
0!
0-
1%
#425000
1!
1-
0%
1W
1E
00
0G
0F
11
0H
12
#430000
0!
0-
1%
#435000
1!
1-
0%
0U
0V
0W
1T
01
1H
1G
1F
0E
10
04
02
14
12
0H
0F
15
05
#440000
0!
0-
1%
#445000
1!
1-
0%
1W
1E
00
1F
#450000
0!
0-
1%
#455000
1!
1-
0%
1V
0W
0G
0F
0E
10
1H
1G
1F
0H
#460000
0!
0-
1%
#465000
1!
1-
0%
1W
0I
1E
00
1J
1D
0G
0F
0K
1H
#470000
0!
0-
1%
#475000
1!
1-
0%
0V
0W
0T
0L
1I
1G
1F
0E
10
02
0J
0,
0$
1J
0D
0H
0F
1K
0K
#480000
0!
0-
1%
#485000
1!
1-
0%
1W
1E
00
1F
#490000
0!
0-
1%
#495000
1!
1-
0%
1V
0W
0G
0F
0E
10
1H
1G
1F
0H
#500000
0!
0-
1%
#505000
1!
1-
0%
1W
1E
00
0G
0F
1H
#510000
0!
0-
1%
#515000
1!
1-
0%
1U
0V
0W
11
0H
1G
1F
0E
10
12
01
1H
0F
02
#520000
0!
0-
1%
#525000
1!
1-
0%
1W
1E
00
1F
#530000
0!
0-
1%
#535000
1!
1-
0%
1V
0W
0G
0F
0E
10
11
0H
1G
1F
12
01
1H
02
#540000
0!
0-
1%
#545000
1!
1-
0%
1W
1E
00
0G
0F
11
0H
12
#550000
0!
0-
1%
#555000
1!
1-
0%
0U
0V
0W
1T
01
1H
1G
1F
0E
10
04
02
14
12
0H
0F
15
05
#560000
0!
0-
1%
#565000
1!
1-
0%
1W
1E
00
1F
#570000
0!
0-
1%
#575000
1!
1-
0%
1V
0W
0G
0F
0E
10
1H
1G
1F
0H
#580000
0!
0-
1%
#585000
1!
1-
0%
1W
0I
1E
00
0J
1D
0G
0F
1K
1H
#590000
0!
0-
1%
#595000
1!
1-
0%
0V
0W
0T
1L
1I
1G
1F
0E
10
02
1J
1,
1$
0J
0D
0H
0F
0K
1K
#600000
0!
0-
1%
#605000
1!
1-
0%
1W
1E
00
1F
#610000
0!
0-
1%
#615000
1!
1-
0%
1V
0W
0G
0F
0E
10
1H
1G
1F
0H
#620000
0!
0-
1%
#625000
1!
1-
0%
1W
1E
00
0G
0F
1H
#630000
0!
0-
1%
#635000
1!
1-
0%
1U
0V
0W
11
0H
1G
1F
0E
10
12
01
1H
0F
02
#640000
0!
0-
1%
#645000
1!
1-
0%
1W
1E
00
1F
#650000
0!
0-
1%
#655000
1!
1-
0%
1V
0W
0G
0F
0E
10
11
0H
1G
1F
12
01
1H
02
#660000
0!
0-
1%
#665000
1!
1-
0%
1W
1E
00
0G
0F
11
0H
12
#670000
0!
0-
1%
#675000
1!
1-
0%
0U
0V
0W
1T
01
1H
1G
1F
0E
10
04
02
14
12
0H
0F
15
05
#680000
0!
0-
1%
#685000
1!
1-
0%
1W
1E
00
1F
#690000
0!
0-
1%
#695000
1!
1-
0%
1V
0W
0G
0F
0E
10
1H
1G
1F
0H
#700000
0!
0-
1%
#705000
1!
1-
0%
1W
0I
1E
00
1J
1D
0G
0F
0K
1H
#710000
0!
0-
1%
#715000
1!
1-
0%
0V
0W
0T
0L
1I
1G
1F
0E
10
02
0J
0,
0$
1J
0D
0H
0F
1K
0K
#720000
0!
0-
1%
#725000
1!
1-
0%
1W
1E
00
1F
#730000
0!
0-
1%
#735000
1!
1-
0%
1V
0W
0G
0F
0E
10
1H
1G
1F
0H
#740000
0!
0-
1%
#745000
1!
1-
0%
1W
1E
00
0G
0F
1H
#750000
0!
0-
1%
#755000
1!
1-
0%
1U
0V
0W
11
0H
1G
1F
0E
10
12
01
1H
0F
02
#760000
0!
0-
1%
#765000
1!
1-
0%
1W
1E
00
1F
#770000
0!
0-
1%
#775000
1!
1-
0%
1V
0W
0G
0F
0E
10
11
0H
1G
1F
12
01
1H
02
#780000
0!
0-
1%
#785000
1!
1-
0%
1W
1E
00
0G
0F
11
0H
12
#790000
0!
0-
1%
#795000
1!
1-
0%
0U
0V
0W
1T
01
1H
1G
1F
0E
10
04
02
14
12
0H
0F
15
05
#800000
0!
0-
1%
#805000
1!
1-
0%
1W
1E
00
1F
#810000
0!
0-
1%
#815000
1!
1-
0%
1V
0W
0G
0F
0E
10
1H
1G
1F
0H
#820000
0!
0-
1%
#825000
1!
1-
0%
1W
0I
1E
00
0J
1D
0G
0F
1K
1H
#830000
0!
0-
1%
#835000
1!
1-
0%
0V
0W
0T
1L
1I
1G
1F
0E
10
02
1J
1,
1$
0J
0D
0H
0F
0K
1K
#840000
0!
0-
1%
#845000
1!
1-
0%
1W
1E
00
1F
#850000
0!
0-
1%
#855000
1!
1-
0%
1V
0W
0G
0F
0E
10
1H
1G
1F
0H
#860000
0!
0-
1%
#865000
1!
1-
0%
1W
1E
00
0G
0F
1H
#870000
0!
0-
1%
#875000
1!
1-
0%
1U
0V
0W
11
0H
1G
1F
0E
10
12
01
1H
0F
02
#880000
0!
0-
1%
#885000
1!
1-
0%
1W
1E
00
1F
#890000
0!
0-
1%
#895000
1!
1-
0%
1V
0W
0G
0F
0E
10
11
0H
1G
1F
12
01
1H
02
#900000
0!
0-
1%
#905000
1!
1-
0%
1W
1E
00
0G
0F
11
0H
12
#910000
0!
0-
1%
#915000
1!
1-
0%
0U
0V
0W
1T
01
1H
1G
1F
0E
10
04
02
14
12
0H
0F
15
05
#920000
0!
0-
1%
#925000
1!
1-
0%
1W
1E
00
1F
#930000
0!
0-
1%
#935000
1!
1-
0%
1V
0W
0G
0F
0E
10
1H
1G
1F
0H
#940000
0!
0-
1%
#945000
1!
1-
0%
1W
0I
1E
00
1J
1D
0G
0F
0K
1H
#950000
0!
0-
1%
#955000
1!
1-
0%
0V
0W
0T
0L
1I
1G
1F
0E
10
02
0J
0,
0$
1J
0D
0H
0F
1K
0K
#960000
0!
0-
1%
#965000
1!
1-
0%
1W
1E
00
1F
#970000
0!
0-
1%
#975000
1!
1-
0%
1V
0W
0G
0F
0E
10
1H
1G
1F
0H
#980000
0!
0-
1%
#985000
1!
1-
0%
1W
1E
00
0G
0F
1H
#990000
0!
0-
1%
#995000
1!
1-
0%
1U
0V
0W
11
0H
1G
1F
0E
10
12
01
1H
0F
02
